An Implementation of the 'DoubleClick for Publishers' API • rdfp
…
# a convenience function has been provided to you to manage the report process workflow
# if you would like more control, see the example below which moves through each step in the process
report_data <- dfp_full_report_wrapper(request_data)
report_data[,c('Dimension.MONTH_AND_YEAR', 'Dimension.AD_UNIT_ID', 'Column.AD_SERVER_CLICKS')]
#> # A tibble: 27 x 3
#>    Dimension.MONTH_AND_YEAR Dimension.AD_UNIT_ID Column.AD_SERVER_CLICKS
#>    <chr>                                   <dbl>                   <dbl>
#>  1 2018-04                            133765096.                   1815.
#>  2 2018-04                            133765216.                    452.
#>  3 2018-04                            133765336.                    652.
#>  4 2018-04                            133765456.                   2247.
#>  5 2018-04                            142461136.                     88.
#>  6 2018-04                            133765576.                  17441.
#>  7 2018-04                            133765696.                    961.
#>  8 2018-04                            133765936.                  17514.
#>  9 2018-04                            142461016.                    324.
#> 10 2018-04                            143543776.                   1348.
#> # ... with 17 more rows
…
