/Users/steven.mortimer/github/rdfp/README.md • rdfp
…
# a convenience function has been provided to you to manage the report process workflow
# if you would like more control, see the example below which moves through each step in the process
report_data <- dfp_full_report_wrapper(request_data)
report_data[,c('Dimension.MONTH_AND_YEAR', 'Dimension.AD_UNIT_ID', 'Column.AD_SERVER_CLICKS')]
#> # A tibble: 25 x 3
#>    Dimension.MONTH_AND_YEAR Dimension.AD_UNIT_ID Column.AD_SERVER_CLICKS
#>    <chr>                                   <dbl>                   <dbl>
#>  1 2018-03                            133765096.                   1778.
#>  2 2018-03                            133765216.                    422.
#>  3 2018-03                            133765336.                    642.
#>  4 2018-03                            133765456.                   2176.
#>  5 2018-03                            142461136.                     91.
#>  6 2018-03                            133765576.                  17581.
#>  7 2018-03                            133765696.                    945.
#>  8 2018-03                            133765936.                  18171.
#>  9 2018-03                            142461016.                    312.
#> 10 2018-03                            143543776.                   1496.
#> # ... with 15 more rows
…
